{
	"Database": {
        "DBType":"postgres",   
        "UserName": "docker",
        "DBName":   "test_game",
        "Password": "docker",
        "SSLMode":  "disable",
        "Host": "db",
        "Port": "5432"
        },
	"TestDatabase": {
        "DBType":"postgres",   
        "UserName": "docker",
        "DBName":   "test_game",
        "Password": "docker",
        "SSLMode":  "disable",
        "Host": "localhost",
        "Port": "5432"
        },
    "ServerSettings": {
        "Port":"8081"
    },
    "TournamentSettings": {
        "MinDurationSec": 60,
        "MinDeposit": 1,
        "MaxPlayers": 100,
        "MinPlayers": 2
    }
}
